<?xml version="1.0" encoding="UTF-8" standalone="no"?>
<!-- Generator: Adobe Illustrator 26.0.1, SVG Export Plug-In . SVG Version: 6.00 Build 0)  -->

<svg
   version="1.1"
   id="Layer_1"
   x="0px"
   y="0px"
   viewBox="0 0 50.5 43.926296"
   xml:space="preserve"
   sodipodi:docname="logo_LogiCaml.svg"
   width="50.5"
   height="43.926296"
   inkscape:version="1.2 (dc2aedaf03, 2022-05-15)"
   xmlns:inkscape="http://www.inkscape.org/namespaces/inkscape"
   xmlns:sodipodi="http://sodipodi.sourceforge.net/DTD/sodipodi-0.dtd"
   xmlns="http://www.w3.org/2000/svg"
   xmlns:svg="http://www.w3.org/2000/svg"
   xmlns:ns4="http://www.iki.fi/pav/software/textext/"><defs
   id="defs41" /><sodipodi:namedview
   id="namedview39"
   pagecolor="#ffffff"
   bordercolor="#666666"
   borderopacity="1.0"
   inkscape:showpageshadow="2"
   inkscape:pageopacity="0.0"
   inkscape:pagecheckerboard="0"
   inkscape:deskcolor="#d1d1d1"
   showgrid="false"
   inkscape:zoom="8.7687897"
   inkscape:cx="20.128205"
   inkscape:cy="22.922205"
   inkscape:window-width="1920"
   inkscape:window-height="1011"
   inkscape:window-x="0"
   inkscape:window-y="0"
   inkscape:window-maximized="1"
   inkscape:current-layer="Layer_1" />
<style
   type="text/css"
   id="style2">
	.st0{fill:#FFFFFF;}
	.st1{fill:#1A202C;}
	.st2{fill:url(#SVGID_1_);}
	.st3{fill:url(#SVGID_00000090296440831515205200000001913776022247393423_);}
	.st4{fill:url(#SVGID_00000068666670919662558360000015815730047716450477_);}
	.st5{fill:url(#SVGID_00000086683552077955393710000000136731069776306816_);}
</style>
<path
   class="st0"
   d="M 26.2,38.7 C 26.1,38.3 26.3,37.8 26.1,37.4 26,37 25.7,37 25.6,36.7 25.2,35.9 24.7,35 24.7,34 c 0,-0.8 -0.3,-1.6 -0.4,-2.4 0,-0.4 0,-0.8 0,-1.2 0,-0.2 0,-0.4 -0.1,-0.6 0,-0.1 0,-0.3 -0.1,-0.3 l 0.1,-0.3 c 0,-0.1 0.9,-0.1 1.2,-0.1 0.5,0 0.9,0 1.4,0.1 1,0 1.8,0 2.8,-0.1 2.1,-0.3 3,-1.2 3.5,-1.5 1.9,-1.3 2.8,-3.6 2.8,-3.6 0.3,-0.7 0.3,-2 1,-2.5 0.8,-0.7 2.1,-0.6 3,-1 0.5,-0.2 0.9,-0.4 1.5,-0.3 0.4,0.1 1.1,0.6 1.3,-0.1 -0.1,-0.1 -0.2,-0.2 -0.3,-0.3 0.8,-0.1 0,-1.8 -0.3,-2.2 -0.5,-0.5 -1.2,-0.8 -2,-1 -1,-0.3 -1.9,-0.6 -2.8,-0.4 -1.6,0.3 -1.5,-0.6 -2.4,-0.6 -1.1,0 -3.1,0.1 -3.5,1.2 -0.2,0.5 -0.3,0.5 -0.6,0.9 -0.2,0.3 0,0.6 -0.1,1 -0.1,0.4 -0.3,1.8 -0.5,2.3 -0.3,0.8 -0.7,1.8 -1.4,1.8 C 27.8,22.9 27,23 26.2,22.7 25.7,22.5 24.9,22.2 24.5,22.1 22.6,21.3 22.3,20.5 22.3,20.5 22.1,20.2 21.6,19.6 21.4,18.9 21.2,18.1 20.8,17.5 20.7,17.1 20.5,16.7 20.2,16 19.9,15.3 19.5,14.4 19,13.7 18.6,13.4 18,12.9 17.5,12.1 16.3,12.3 c -0.2,0 -1,0.1 -1.6,0.6 -0.4,0.3 -0.5,1 -0.9,1.6 -0.2,0.3 -0.6,1.3 -0.9,2.1 -0.2,0.6 -0.3,1 -0.6,1.2 -0.2,0.2 -0.4,0.4 -0.7,0.3 -0.2,-0.1 -0.4,-0.2 -0.6,-0.3 -0.3,-0.2 -0.9,-1.3 -1.3,-2 -0.3,-0.7 -1,-1.7 -1.4,-2.2 -0.6,-0.8 -0.9,-1 -1.8,-1 -1.8,0 -2,1 -2.8,2.5 C 3.3,15.8 3.2,16.8 2.5,17.6 2.2,18 0.9,19.9 0,20.2 v 0 0 13.8 0 -0.1 C 0.1,33.7 0.1,33.5 0.2,33.4 0.6,32.7 1.4,32 1.8,31.2 2,30.8 2.3,30.4 2.5,29.9 2.6,29.6 2.7,29 2.9,28.7 c 0.2,-0.4 0.6,-0.5 1,-0.6 0.7,-0.1 1.2,0.9 2,1.3 0.3,0.2 1.9,0.7 2.4,0.8 0.8,0.2 1.6,0.3 2.4,0.5 0.4,0.1 0.8,0.1 1.3,0.2 0.4,0 1.9,0.1 1.9,0.2 -0.7,0.4 -1.2,1.4 -1.5,2.2 -0.3,0.8 -0.5,1.7 -0.8,2.4 -0.4,0.8 -1.2,1.2 -1.1,2.2 0,0.4 0.1,0.8 0,1.2 -0.1,0.5 -0.3,0.8 -0.4,1.3 -0.2,0.6 -0.4,2.5 -0.6,3 l 1.6,-0.2 v 0 c 0.2,-0.4 0.3,-2.2 0.4,-2.4 0.3,-0.9 0.7,-1.6 1.3,-2.3 0.6,-0.7 0.6,-1.5 0.9,-2.3 0.4,-0.9 0.9,-1.5 1.4,-2.3 0.9,-1.4 1.5,-3.3 3.3,-3.7 0.2,0 1.3,0.8 1.8,1.3 0.6,0.6 1.2,1.2 1.6,2 0.7,1.5 1.4,3.7 1.6,4.8 0.1,0.7 0.2,0.7 0.7,1.3 0.2,0.2 0.6,1 0.8,1.3 0.1,0.3 0.4,1 0.5,1.4 0.1,0.2 0.4,0.9 0.6,1.5 h 1.5 c 0,0 0,0 0,0 0,0 0,0 0,0 0,0 0,0 0,0 -0.6,-1.7 -1.1,-3.4 -1.3,-5.1 z"
   id="path4" />
<path
   class="st1"
   d="m 25.2,29.8 v 0 c 0,0 0,0 0,0 z"
   id="path6" />
<linearGradient
   id="SVGID_1_"
   gradientUnits="userSpaceOnUse"
   x1="25.3356"
   y1="16.218"
   x2="25.3356"
   y2="16.1626"
   gradientTransform="matrix(1,0,0,-1,-0.1,46)">
	<stop
   offset="0"
   style="stop-color:#F29100"
   id="stop8" />
	<stop
   offset="1"
   style="stop-color:#EC670F"
   id="stop10" />
</linearGradient>
<path
   class="st2"
   d="m 25.2,29.8 v 0 c 0,0 0,0 0,0 z"
   id="path13"
   style="fill:url(#SVGID_1_)" />
<linearGradient
   id="SVGID_00000095312580722786645380000001324625003981611139_"
   gradientUnits="userSpaceOnUse"
   x1="18.587099"
   y1="15.8701"
   x2="18.587099"
   y2="2.0746"
   gradientTransform="matrix(1,0,0,-1,-0.1,46)">
	<stop
   offset="0"
   style="stop-color:#F29100"
   id="stop15" />
	<stop
   offset="1"
   style="stop-color:#EC670F"
   id="stop17" />
</linearGradient>
<path
   style="fill:url(#SVGID_00000095312580722786645380000001324625003981611139_)"
   d="M 25.4,42.2 C 25.2,41.8 25,41.1 24.9,40.8 24.8,40.5 24.3,39.7 24.1,39.5 23.6,39 23.5,38.9 23.4,38.2 23.2,37 22.5,34.8 21.8,33.4 c -0.4,-0.8 -1,-1.4 -1.6,-2 -0.5,-0.5 -1.6,-1.3 -1.8,-1.3 -1.9,0.4 -2.4,2.2 -3.3,3.7 -0.5,0.8 -1,1.5 -1.4,2.3 -0.4,0.8 -0.3,1.7 -0.9,2.3 -0.6,0.7 -1,1.4 -1.3,2.3 -0.1,0.2 -0.2,2 -0.4,2.4 v 0 l 2.8,-0.2 c 2.6,0.2 1.8,1.2 5.9,1 l 6.4,-0.2 c -0.4,-0.6 -0.7,-1.3 -0.8,-1.5 z"
   id="path20" />
<linearGradient
   id="SVGID_00000157293995348393874100000005864532982483007931_"
   gradientUnits="userSpaceOnUse"
   x1="25.291901"
   y1="45.9795"
   x2="25.291901"
   y2="2.0479"
   gradientTransform="matrix(1,0,0,-1,-0.1,46)">
	<stop
   offset="0"
   style="stop-color:#F29100"
   id="stop22" />
	<stop
   offset="1"
   style="stop-color:#EC670F"
   id="stop24" />
</linearGradient>
<path
   style="fill:url(#SVGID_00000157293995348393874100000005864532982483007931_)"
   d="M 44,0 H 6.3 C 2.8,0 0,2.9 0,6.4 V 20.3 C 0.9,19.9 2.2,18 2.6,17.5 3.3,16.7 3.4,15.6 3.8,15 c 0.8,-1.5 1,-2.5 2.8,-2.5 0.9,0 1.2,0.2 1.8,1 0.4,0.5 1.1,1.5 1.4,2.1 0.4,0.8 1,1.8 1.3,2 0.2,0.2 0.4,0.3 0.6,0.3 0.3,0.1 0.5,-0.1 0.7,-0.3 0.3,-0.2 0.4,-0.6 0.6,-1.2 0.3,-0.8 0.7,-1.8 0.9,-2.1 0.4,-0.6 0.5,-1.3 0.9,-1.6 0.6,-0.5 1.3,-0.5 1.6,-0.6 1.2,-0.2 1.7,0.6 2.3,1.1 0.4,0.3 0.9,1 1.3,1.9 0.3,0.7 0.7,1.4 0.8,1.8 0.1,0.4 0.5,1 0.7,1.8 0.2,0.7 0.7,1.2 0.9,1.6 0,0 0.3,0.9 2.2,1.6 0.4,0.2 1.2,0.4 1.7,0.6 0.8,0.3 1.6,0.3 2.6,0.1 0.7,0 1.1,-1 1.4,-1.8 0.2,-0.5 0.4,-1.9 0.5,-2.3 0.1,-0.4 -0.2,-0.7 0.1,-1 0.3,-0.4 0.4,-0.4 0.6,-0.9 0.3,-1.1 2.4,-1.2 3.5,-1.2 0.9,0 0.8,0.9 2.4,0.6 0.9,-0.2 1.8,0.1 2.8,0.4 0.8,0.2 1.6,0.5 2,1 0.3,0.3 1,2.1 0.3,2.2 0.1,0.1 0.1,0.2 0.3,0.3 -0.2,0.7 -0.9,0.2 -1.3,0.1 -0.5,-0.1 -0.9,0 -1.5,0.3 -0.9,0.4 -2.3,0.4 -3,1 -0.7,0.6 -0.7,1.8 -1,2.5 0,0 -0.9,2.3 -2.8,3.6 -0.5,0.4 -1.4,1.2 -3.5,1.5 -0.9,0.1 -1.8,0.2 -2.8,0.1 -0.5,0 -0.9,0 -1.4,-0.1 -0.3,0 -1.2,0 -1.2,0.1 l -0.1,0.3 c 0,0.1 0,0.3 0.1,0.3 0,0.2 0,0.4 0.1,0.6 0,0.4 0,0.8 0,1.2 0,0.8 0.3,1.6 0.4,2.4 0,0.9 0.5,1.9 0.9,2.7 0.2,0.3 0.4,0.3 0.5,0.7 0.1,0.4 0,0.8 0.1,1.3 0.2,1.7 0.7,3.4 1.5,5 0,0 0,0 0,0 0.9,-0.2 1.9,-0.5 3.1,-0.7 2.2,-0.3 5.3,-0.2 7.3,-0.3 5,-0.5 7.8,2.1 12.3,1 V 6.4 C 50.4,2.9 47.6,0 44,0 Z M 25.2,29.8 c 0,0 0,0 0,0 z"
   id="path27" />
<linearGradient
   id="SVGID_00000068667360278913366410000013664633033785590662_"
   gradientUnits="userSpaceOnUse"
   x1="7.0455999"
   y1="17.924801"
   x2="7.0455999"
   y2="2.3512001"
   gradientTransform="matrix(1,0,0,-1,-0.1,46)">
	<stop
   offset="0"
   style="stop-color:#F29100"
   id="stop29" />
	<stop
   offset="1"
   style="stop-color:#EC670F"
   id="stop31" />
</linearGradient>
<path
   style="fill:url(#SVGID_00000068667360278913366410000013664633033785590662_)"
   d="m 11.6,35.7 c 0.4,-0.8 0.6,-1.6 0.8,-2.4 0.3,-0.8 0.7,-1.8 1.5,-2.2 C 13.8,31 12.3,30.9 12,30.9 11.6,30.9 11.2,30.8 10.7,30.7 9.9,30.5 9,30.4 8.3,30.2 7.8,30.1 6.3,29.5 5.9,29.4 5.1,29 4.6,28 3.9,28.1 3.5,28.2 3.1,28.3 2.9,28.7 2.7,29 2.6,29.6 2.5,30 2.3,30.4 2.1,30.9 1.8,31.3 1.3,32.1 0.5,32.8 0.2,33.5 0.1,33.7 0.1,33.8 0,34 v 8.6 c 0.4,0.1 0.8,0.2 1.3,0.3 3.5,0.9 4.4,1 7.9,0.6 h 0.3 v 0 c 0.3,-0.6 0.5,-2.4 0.6,-3 0.1,-0.4 0.3,-0.8 0.4,-1.3 0.1,-0.4 0,-0.8 0,-1.2 -0.1,-1.1 0.7,-1.5 1.1,-2.3 z"
   id="path34" />

<ellipse
   style="fill:#ffffff;fill-rule:evenodd;stroke:none"
   id="path253"
   cx="28.67823"
   cy="6.3397756"
   rx="9.9740248"
   ry="4.6418204" /><ellipse
   style="fill:#ffffff;stroke:none"
   id="path314"
   cx="28.559553"
   cy="12.473795"
   rx="1.8569622"
   ry="0.38103881" /><ellipse
   style="fill:#ffffff;stroke:none"
   id="path316"
   cx="30.987007"
   cy="14.637353"
   rx="1.1514418"
   ry="0.3729887" /><g
   transform="matrix(0.45744524,0,0,0.45744524,22.522825,4.5273797)"
   ns4:version="1.8.1"
   ns4:texconverter="pdflatex"
   ns4:pdfconverter="inkscape"
   ns4:text="$p \\vee \\neg p$"
   ns4:preamble="/home/ortion/.config/inkscape/extensions/textext/default_packages.tex"
   ns4:scale="1.0"
   ns4:alignment="middle center"
   ns4:stroke-to-path="0"
   ns4:inkscapeversion="1.2"
   ns4:jacobian_sqrt="1.33333"
   id="g418"><defs
   id="id-8e5db80a-e29c-4c7f-be22-bfa4fc62bd99">
    <g
   id="id-bb0d292b-5630-4a12-aa7c-815bef03fbcf">
      <g
   id="id-5b96840f-1a69-40dd-8e12-44f5ab2e8453" />
      <g
   id="id-246ed10b-f756-432e-907f-15ba19d36f8a">
        <path
   d="M 0.453125,1.21875 C 0.375,1.5625 0.34375,1.625 -0.09375,1.625 c -0.109375,0 -0.21875,0 -0.21875,0.1875 0,0.078125 0.046875,0.125 0.125,0.125 0.265625,0 0.5625,-0.03125 0.828125,-0.03125 0.34375,0 0.671875,0.03125 1,0.03125 0.046875,0 0.171875,0 0.171875,-0.203125 C 1.8125,1.625 1.71875,1.625 1.578125,1.625 c -0.5,0 -0.5,-0.0625 -0.5,-0.15625 0,-0.125 0.421875,-1.75 0.484375,-2 0.125,0.296875 0.40625,0.640625 0.921875,0.640625 1.15625,0 2.40625,-1.453125 2.40625,-2.921875 0,-0.9375 -0.578125,-1.59375 -1.328125,-1.59375 -0.5,0 -0.984375,0.359375 -1.3125,0.75 -0.09375,-0.546875 -0.53125,-0.75 -0.890625,-0.75 -0.46875,0 -0.65625,0.390625 -0.734375,0.5625 C 0.4375,-3.5 0.3125,-2.90625 0.3125,-2.875 c 0,0.109375 0.09375,0.109375 0.109375,0.109375 0.109375,0 0.109375,-0.015625 0.171875,-0.234375 0.171875,-0.703125 0.375,-1.1875 0.734375,-1.1875 0.171875,0 0.3125,0.078125 0.3125,0.453125 0,0.234375 -0.03125,0.34375 -0.078125,0.515625 z m 1.75,-4.328125 C 2.265625,-3.375 2.546875,-3.65625 2.71875,-3.8125 c 0.359375,-0.296875 0.640625,-0.375 0.8125,-0.375 0.390625,0 0.640625,0.34375 0.640625,0.9375 0,0.59375 -0.328125,1.734375 -0.515625,2.109375 -0.34375,0.703125 -0.8125,1.03125 -1.1875,1.03125 C 1.8125,-0.109375 1.6875,-0.9375 1.6875,-1 c 0,-0.015625 0,-0.03125 0.03125,-0.15625 z m 0,0"
   id="id-8c1dc52c-30ff-40ec-82d2-266a451cb844" />
      </g>
      <g
   id="id-d7af2741-d72e-45a7-bdb0-b85229a2cc1b" />
      <g
   id="id-de601c31-d90f-4321-88f0-831af0d59382">
        <path
   d="M 6.015625,-5.5625 C 6.078125,-5.6875 6.09375,-5.71875 6.09375,-5.765625 6.09375,-5.875 6,-5.96875 5.890625,-5.96875 c -0.09375,0 -0.15625,0.078125 -0.234375,0.234375 L 3.3125,-0.46875 0.984375,-5.75 C 0.890625,-5.9375 0.8125,-5.96875 0.75,-5.96875 c -0.109375,0 -0.203125,0.09375 -0.203125,0.203125 0,0.03125 0,0.046875 0.0625,0.15625 l 2.484375,5.625 c 0.078125,0.15625 0.140625,0.203125 0.21875,0.203125 0.140625,0 0.171875,-0.0625 0.21875,-0.203125 z m 0,0"
   id="id-b87396cb-ebd3-44ec-8946-05cf5cd583cf" />
      </g>
      <g
   id="id-9ed684f9-b14d-4c62-bd49-5eca60f46741">
        <path
   d="m 6.09375,-3.1875 c 0,-0.328125 -0.03125,-0.359375 -0.359375,-0.359375 h -4.84375 c -0.15625,0 -0.34375,0 -0.34375,0.203125 0,0.1875 0.1875,0.1875 0.34375,0.1875 H 5.6875 V -1.25 c 0,0.1875 0,0.359375 0.203125,0.359375 0.203125,0 0.203125,-0.171875 0.203125,-0.359375 z m 0,0"
   id="id-58aac944-8600-4a98-abcb-f6367fc03828" />
      </g>
    </g>
  </defs>
  <g
   fill="#000000"
   fill-opacity="1"
   id="id-c28206a0-a940-46c0-85cd-8ed7f146fce9"
   transform="translate(-148.4,-128.796)">
    <g
   transform="translate(148.712,134.765)"
   id="g403"><path
   d="M 0.453125,1.21875 C 0.375,1.5625 0.34375,1.625 -0.09375,1.625 c -0.109375,0 -0.21875,0 -0.21875,0.1875 0,0.078125 0.046875,0.125 0.125,0.125 0.265625,0 0.5625,-0.03125 0.828125,-0.03125 0.34375,0 0.671875,0.03125 1,0.03125 0.046875,0 0.171875,0 0.171875,-0.203125 C 1.8125,1.625 1.71875,1.625 1.578125,1.625 c -0.5,0 -0.5,-0.0625 -0.5,-0.15625 0,-0.125 0.421875,-1.75 0.484375,-2 0.125,0.296875 0.40625,0.640625 0.921875,0.640625 1.15625,0 2.40625,-1.453125 2.40625,-2.921875 0,-0.9375 -0.578125,-1.59375 -1.328125,-1.59375 -0.5,0 -0.984375,0.359375 -1.3125,0.75 -0.09375,-0.546875 -0.53125,-0.75 -0.890625,-0.75 -0.46875,0 -0.65625,0.390625 -0.734375,0.5625 C 0.4375,-3.5 0.3125,-2.90625 0.3125,-2.875 c 0,0.109375 0.09375,0.109375 0.109375,0.109375 0.109375,0 0.109375,-0.015625 0.171875,-0.234375 0.171875,-0.703125 0.375,-1.1875 0.734375,-1.1875 0.171875,0 0.3125,0.078125 0.3125,0.453125 0,0.234375 -0.03125,0.34375 -0.078125,0.515625 z m 1.75,-4.328125 C 2.265625,-3.375 2.546875,-3.65625 2.71875,-3.8125 c 0.359375,-0.296875 0.640625,-0.375 0.8125,-0.375 0.390625,0 0.640625,0.34375 0.640625,0.9375 0,0.59375 -0.328125,1.734375 -0.515625,2.109375 -0.34375,0.703125 -0.8125,1.03125 -1.1875,1.03125 C 1.8125,-0.109375 1.6875,-0.9375 1.6875,-1 c 0,-0.015625 0,-0.03125 0.03125,-0.15625 z m 0,0"
   id="id-a1c51ac3-ca5a-498d-9cef-6c22e94595c3" />
      </g></g>
  <g
   fill="#000000"
   fill-opacity="1"
   id="id-81abc13a-1caf-4322-b816-503e9de2ca63"
   transform="translate(-148.4,-128.796)">
    <g
   transform="translate(155.939,134.765)"
   id="g407"><path
   d="M 6.015625,-5.5625 C 6.078125,-5.6875 6.09375,-5.71875 6.09375,-5.765625 6.09375,-5.875 6,-5.96875 5.890625,-5.96875 c -0.09375,0 -0.15625,0.078125 -0.234375,0.234375 L 3.3125,-0.46875 0.984375,-5.75 C 0.890625,-5.9375 0.8125,-5.96875 0.75,-5.96875 c -0.109375,0 -0.203125,0.09375 -0.203125,0.203125 0,0.03125 0,0.046875 0.0625,0.15625 l 2.484375,5.625 c 0.078125,0.15625 0.140625,0.203125 0.21875,0.203125 0.140625,0 0.171875,-0.0625 0.21875,-0.203125 z m 0,0"
   id="id-3468765e-afd1-47fb-b1b6-a0da5e28c6d8" />
      </g></g>
  <g
   fill="#000000"
   fill-opacity="1"
   id="id-4850fe7c-9c95-42e7-a464-cc388e21c8f7"
   transform="translate(-148.4,-128.796)">
    <g
   transform="translate(164.793,134.765)"
   id="g411"><path
   d="m 6.09375,-3.1875 c 0,-0.328125 -0.03125,-0.359375 -0.359375,-0.359375 h -4.84375 c -0.15625,0 -0.34375,0 -0.34375,0.203125 0,0.1875 0.1875,0.1875 0.34375,0.1875 H 5.6875 V -1.25 c 0,0.1875 0,0.359375 0.203125,0.359375 0.203125,0 0.203125,-0.171875 0.203125,-0.359375 z m 0,0"
   id="id-92ea0002-2dad-4fb5-a5da-1d11d8bb056f" />
      </g></g>
  <g
   fill="#000000"
   fill-opacity="1"
   id="id-bd90af69-0e82-453e-b7f7-06a049f4fbed"
   transform="translate(-148.4,-128.796)">
    <g
   transform="translate(171.436,134.765)"
   id="g415"><path
   d="M 0.453125,1.21875 C 0.375,1.5625 0.34375,1.625 -0.09375,1.625 c -0.109375,0 -0.21875,0 -0.21875,0.1875 0,0.078125 0.046875,0.125 0.125,0.125 0.265625,0 0.5625,-0.03125 0.828125,-0.03125 0.34375,0 0.671875,0.03125 1,0.03125 0.046875,0 0.171875,0 0.171875,-0.203125 C 1.8125,1.625 1.71875,1.625 1.578125,1.625 c -0.5,0 -0.5,-0.0625 -0.5,-0.15625 0,-0.125 0.421875,-1.75 0.484375,-2 0.125,0.296875 0.40625,0.640625 0.921875,0.640625 1.15625,0 2.40625,-1.453125 2.40625,-2.921875 0,-0.9375 -0.578125,-1.59375 -1.328125,-1.59375 -0.5,0 -0.984375,0.359375 -1.3125,0.75 -0.09375,-0.546875 -0.53125,-0.75 -0.890625,-0.75 -0.46875,0 -0.65625,0.390625 -0.734375,0.5625 C 0.4375,-3.5 0.3125,-2.90625 0.3125,-2.875 c 0,0.109375 0.09375,0.109375 0.109375,0.109375 0.109375,0 0.109375,-0.015625 0.171875,-0.234375 0.171875,-0.703125 0.375,-1.1875 0.734375,-1.1875 0.171875,0 0.3125,0.078125 0.3125,0.453125 0,0.234375 -0.03125,0.34375 -0.078125,0.515625 z m 1.75,-4.328125 C 2.265625,-3.375 2.546875,-3.65625 2.71875,-3.8125 c 0.359375,-0.296875 0.640625,-0.375 0.8125,-0.375 0.390625,0 0.640625,0.34375 0.640625,0.9375 0,0.59375 -0.328125,1.734375 -0.515625,2.109375 -0.34375,0.703125 -0.8125,1.03125 -1.1875,1.03125 C 1.8125,-0.109375 1.6875,-0.9375 1.6875,-1 c 0,-0.015625 0,-0.03125 0.03125,-0.15625 z m 0,0"
   id="id-84bc98e9-8026-4388-b513-90acfc00bf3f" />
      </g></g>
</g></svg>
